%YAML 1.1
%TAG !u! tag:unity3d.com,2011:
--- !u!114 &11400000
MonoBehaviour:
  m_ObjectHideFlags: 0
  m_CorrespondingSourceObject: {fileID: 0}
  m_PrefabInstance: {fileID: 0}
  m_PrefabAsset: {fileID: 0}
  m_GameObject: {fileID: 0}
  m_Enabled: 1
  m_EditorHideFlags: 0
  m_Script: {fileID: 11500000, guid: 8f37f65229e416b40aa9fb09bb9e5a75, type: 3}
  m_Name: GameSettingsSO
  m_EditorClassIdentifier: 
  worldLimit: 15
  nUpdatesLoop: 1
  antPrefab: {fileID: 2291262089861579199, guid: e55d64bf28a198a4e838fb32be1908a9,
    type: 3}
  antHillPrefab: {fileID: 7341912469412075062, guid: f3e3263cbc830fd429e7045210e25a4b,
    type: 3}
  eggModel: {fileID: 4908070594133635022, guid: a1288e232327cef4795b89df517c977f,
    type: 3}
  nestsDistance: 3
  maxAntsPerNest: 70
  minEggTime: 6
  maxEggTime: 10
  minSpawnProb: 0.1
  queen: {fileID: 11400000, guid: 4cecc3b87f5ee00408853447d257ee6e, type: 2}
  drone: {fileID: 11400000, guid: d3ea9828e1f560043802ee5a1eef7f5a, type: 2}
  soldier: {fileID: 11400000, guid: b572fbdaab6aec944863377019084beb, type: 2}
  collector: {fileID: 11400000, guid: 20154176e75023a48950fb9b653f74ac, type: 2}
  nurse: {fileID: 11400000, guid: 81a6cdb7614601442aef0158fa68ca57, type: 2}
