%YAML 1.1
%TAG !u! tag:unity3d.com,2011:
--- !u!114 &11400000
MonoBehaviour:
  m_ObjectHideFlags: 0
  m_CorrespondingSourceObject: {fileID: 0}
  m_PrefabInstance: {fileID: 0}
  m_PrefabAsset: {fileID: 0}
  m_GameObject: {fileID: 0}
  m_Enabled: 1
  m_EditorHideFlags: 0
  m_Script: {fileID: 11500000, guid: 3a0a36d2348274d40a718e117ac04dbf, type: 3}
  m_Name: FoodSpawner
  m_EditorClassIdentifier: 
  entity: {fileID: 8148540312489499210, guid: 212c742d92f886044b990c941dcb3148, type: 3}
  maxEntities: 10
  spawnRadius: 20
  entityRadius: 2
  entityCount: 0
  activeList: []
  inactiveList: []
